{
	"info": {
		"_postman_id": "7439e7aa-2ceb-4c22-b6a9-7c924e68a22a",
		"name": "csp2",
		"schema": "https://schema.getpostman.com/json/collection/v2.1.0/collection.json",
		"_exporter_id": "27289795"
	},
	"item": [
		{
			"name": "Post",
			"item": [
				{
					"name": "User registration",
					"request": {
						"method": "POST",
						"header": [],
						"body": {
							"mode": "raw",
							"raw": "{\r\n  \"firstName\": \"Blake\",\r\n  \"lastName\": \"Grifin\",\r\n  \"password\": \"blake123\",\r\n  \"mobileNo\": \"096563676732\"\r\n}\r\n",
							"options": {
								"raw": {
									"language": "json"
								}
							}
						},
						"url": {
							"raw": "https://capstone-2-escaros.onrender.com/users/register",
							"protocol": "https",
							"host": [
								"capstone-2-escaros",
								"onrender",
								"com"
							],
							"path": [
								"users",
								"register"
							]
						}
					},
					"response": []
				},
				{
					"name": "login",
					"request": {
						"method": "POST",
						"header": [],
						"body": {
							"mode": "raw",
							"raw": " {\r\n       \"email\": \"gin@example.com\",\r\n        \"password\": \"gin123\"\r\n }\r\n\r\n\r\n",
							"options": {
								"raw": {
									"language": "json"
								}
							}
						},
						"url": {
							"raw": "https://capstone-2-escaros.onrender.com/users/login",
							"protocol": "https",
							"host": [
								"capstone-2-escaros",
								"onrender",
								"com"
							],
							"path": [
								"users",
								"login"
							]
						}
					},
					"response": []
				},
				{
					"name": "create product",
					"request": {
						"auth": {
							"type": "bearer",
							"bearer": [
								{
									"key": "token",
									"value": "eyJhbGciOiJIUzI1NiIsInR5cCI6IkpXVCJ9.eyJpZCI6IjY0ODE3YjFlZDczMWE5ZGNjOTE3OTUxZSIsImVtYWlsIjoiYWRtaW5AZW1haWwuY29tIiwiaXNBZG1pbiI6dHJ1ZSwiaWF0IjoxNjg2MjEzNzUzfQ.VwVgpKOLFSLERdSFYs_ulHhC1SrdfmJ0gxJEjZfFC9s\n",
									"type": "string"
								}
							]
						},
						"method": "POST",
						"header": [],
						"body": {
							"mode": "raw",
							"raw": "{\r\n  \"name\": \"Iphone 16 Pro Max Ultra\",\r\n  \"description\": \"64GbROM | 4GbRAM | NO Charger \",\r\n  \"price\": 99999.99\r\n}",
							"options": {
								"raw": {
									"language": "json"
								}
							}
						},
						"url": {
							"raw": "https://capstone-2-escaros.onrender.com/products/",
							"protocol": "https",
							"host": [
								"capstone-2-escaros",
								"onrender",
								"com"
							],
							"path": [
								"products",
								""
							]
						}
					},
					"response": []
				},
				{
					"name": "User Checkout",
					"request": {
						"auth": {
							"type": "bearer",
							"bearer": [
								{
									"key": "token",
									"value": "eyJhbGciOiJIUzI1NiIsInR5cCI6IkpXVCJ9.eyJpZCI6IjY0ODE1YTcwZTE5YWY2NTdiNzEzOTUwOCIsImVtYWlsIjoibGV4QGV4YW1wbGUuY29tIiwiaXNBZG1pbiI6ZmFsc2UsImlhdCI6MTY4NjIxNDg1NX0.-d7YlRxayO9_zRHM1RrDP2WCcshAVhLzkFrC7OrpKYM",
									"type": "string"
								}
							]
						},
						"method": "POST",
						"header": [],
						"body": {
							"mode": "raw",
							"raw": "{\r\n  \"productId\": \"6481059cfa6d5a9962f8180f\"\r\n}\r\n",
							"options": {
								"raw": {
									"language": "json"
								}
							}
						},
						"url": {
							"raw": "https://capstone-2-escaros.onrender.com/users/checkout",
							"protocol": "https",
							"host": [
								"capstone-2-escaros",
								"onrender",
								"com"
							],
							"path": [
								"users",
								"checkout"
							]
						}
					},
					"response": []
				}
			]
		},
		{
			"name": "Get",
			"item": [
				{
					"name": "get all products",
					"request": {
						"auth": {
							"type": "bearer",
							"bearer": [
								{
									"key": "token",
									"value": "eyJhbGciOiJIUzI1NiIsInR5cCI6IkpXVCJ9.eyJpZCI6IjY0ODE3YjFlZDczMWE5ZGNjOTE3OTUxZSIsImVtYWlsIjoiYWRtaW5AZW1haWwuY29tIiwiaXNBZG1pbiI6dHJ1ZSwiaWF0IjoxNjg2MjE0MjgzfQ.YjZXsTxN3LwBgbPFKMaSlp-6fpK5nGHyCSUyHL9mEac",
									"type": "string"
								}
							]
						},
						"method": "GET",
						"header": [],
						"url": {
							"raw": "https://capstone-2-escaros.onrender.com/products",
							"protocol": "https",
							"host": [
								"capstone-2-escaros",
								"onrender",
								"com"
							],
							"path": [
								"products"
							]
						}
					},
					"response": []
				},
				{
					"name": "get all active products",
					"request": {
						"method": "GET",
						"header": [],
						"url": {
							"raw": "https://capstone-2-escaros.onrender.com/products/active",
							"protocol": "https",
							"host": [
								"capstone-2-escaros",
								"onrender",
								"com"
							],
							"path": [
								"products",
								"active"
							]
						}
					},
					"response": []
				},
				{
					"name": "Retrieve User details",
					"request": {
						"auth": {
							"type": "bearer",
							"bearer": [
								{
									"key": "token",
									"value": "eyJhbGciOiJIUzI1NiIsInR5cCI6IkpXVCJ9.eyJpZCI6IjY0ODEwNDgwZmE2ZDVhOTk2MmY4MTgwOSIsImVtYWlsIjoiZ2luQGV4YW1wbGUuY29tIiwiaXNBZG1pbiI6dHJ1ZSwiaWF0IjoxNjg2MjE0OTU5fQ.1KMeZ-0IB3Yjq5USnVxr7ULjx0KXLC7BehhzDJ8qBVw",
									"type": "string"
								}
							]
						},
						"method": "GET",
						"header": [],
						"url": {
							"raw": "https://capstone-2-escaros.onrender.com/users/",
							"protocol": "https",
							"host": [
								"capstone-2-escaros",
								"onrender",
								"com"
							],
							"path": [
								"users",
								""
							]
						}
					},
					"response": []
				},
				{
					"name": "Retrieve Autenticated User's order",
					"request": {
						"auth": {
							"type": "bearer",
							"bearer": [
								{
									"key": "token",
									"value": "eyJhbGciOiJIUzI1NiIsInR5cCI6IkpXVCJ9.eyJpZCI6IjY0ODEwNTJhZmE2ZDVhOTk2MmY4MTgwYiIsImVtYWlsIjoic2FtQGV4YW1wbGUuY29tIiwiaXNBZG1pbiI6ZmFsc2UsImlhdCI6MTY4NjIwNTc2Nn0.42xMfx9dU7MEfY83rJIZ46eIHIlbxap85BVgDQhkLt0",
									"type": "string"
								}
							]
						},
						"method": "GET",
						"header": [],
						"url": {
							"raw": "https://capstone-2-escaros.onrender.com/users/orders/6481052afa6d5a9962f8180b",
							"protocol": "https",
							"host": [
								"capstone-2-escaros",
								"onrender",
								"com"
							],
							"path": [
								"users",
								"orders",
								"6481052afa6d5a9962f8180b"
							]
						}
					},
					"response": []
				},
				{
					"name": "get a product",
					"request": {
						"method": "GET",
						"header": [],
						"url": {
							"raw": "https://capstone-2-escaros.onrender.com/products/64810603fa6d5a9962f81811",
							"protocol": "https",
							"host": [
								"capstone-2-escaros",
								"onrender",
								"com"
							],
							"path": [
								"products",
								"64810603fa6d5a9962f81811"
							]
						}
					},
					"response": []
				},
				{
					"name": "Retrieve All orders",
					"request": {
						"auth": {
							"type": "bearer",
							"bearer": [
								{
									"key": "token",
									"value": "eyJhbGciOiJIUzI1NiIsInR5cCI6IkpXVCJ9.eyJpZCI6IjY0ODEwNDgwZmE2ZDVhOTk2MmY4MTgwOSIsImVtYWlsIjoiZ2luQGV4YW1wbGUuY29tIiwiaXNBZG1pbiI6dHJ1ZSwiaWF0IjoxNjg2MTkyOTM0fQ.MftZbabuX17nWjXJDkFS8bcuELrfXC39tz_SgaBhJS4",
									"type": "string"
								}
							]
						},
						"method": "GET",
						"header": [],
						"url": {
							"raw": "https://capstone-2-escaros.onrender.com/users/orders",
							"protocol": "https",
							"host": [
								"capstone-2-escaros",
								"onrender",
								"com"
							],
							"path": [
								"users",
								"orders"
							]
						}
					},
					"response": []
				}
			]
		},
		{
			"name": "Put",
			"item": [
				{
					"name": "Update a product",
					"request": {
						"auth": {
							"type": "bearer",
							"bearer": [
								{
									"key": "token",
									"value": "eyJhbGciOiJIUzI1NiIsInR5cCI6IkpXVCJ9.eyJpZCI6IjY0ODE3YjFlZDczMWE5ZGNjOTE3OTUxZSIsImVtYWlsIjoiYWRtaW5AZW1haWwuY29tIiwiaXNBZG1pbiI6dHJ1ZSwiaWF0IjoxNjg2MjE0MjgzfQ.YjZXsTxN3LwBgbPFKMaSlp-6fpK5nGHyCSUyHL9mEac",
									"type": "string"
								}
							]
						},
						"method": "PUT",
						"header": [],
						"body": {
							"mode": "raw",
							"raw": "{\r\n    \"price\": 2\r\n}",
							"options": {
								"raw": {
									"language": "json"
								}
							}
						},
						"url": {
							"raw": "https://capstone-2-escaros.onrender.com/products/6481059cfa6d5a9962f8180f",
							"protocol": "https",
							"host": [
								"capstone-2-escaros",
								"onrender",
								"com"
							],
							"path": [
								"products",
								"6481059cfa6d5a9962f8180f"
							]
						}
					},
					"response": []
				},
				{
					"name": "Archive a product",
					"request": {
						"auth": {
							"type": "bearer",
							"bearer": [
								{
									"key": "token",
									"value": "eyJhbGciOiJIUzI1NiIsInR5cCI6IkpXVCJ9.eyJpZCI6IjY0ODE3YjFlZDczMWE5ZGNjOTE3OTUxZSIsImVtYWlsIjoiYWRtaW5AZW1haWwuY29tIiwiaXNBZG1pbiI6dHJ1ZSwiaWF0IjoxNjg2MjE0MjgzfQ.YjZXsTxN3LwBgbPFKMaSlp-6fpK5nGHyCSUyHL9mEac",
									"type": "string"
								}
							]
						},
						"method": "PUT",
						"header": [],
						"body": {
							"mode": "raw",
							"raw": "{\r\n    \"isActive\": false\r\n}",
							"options": {
								"raw": {
									"language": "json"
								}
							}
						},
						"url": {
							"raw": "https://capstone-2-escaros.onrender.com/products/archive/6481059cfa6d5a9962f8180f",
							"protocol": "https",
							"host": [
								"capstone-2-escaros",
								"onrender",
								"com"
							],
							"path": [
								"products",
								"archive",
								"6481059cfa6d5a9962f8180f"
							]
						}
					},
					"response": []
				},
				{
					"name": "Activate a product",
					"request": {
						"auth": {
							"type": "bearer",
							"bearer": [
								{
									"key": "token",
									"value": "eyJhbGciOiJIUzI1NiIsInR5cCI6IkpXVCJ9.eyJpZCI6IjY0ODE3YjFlZDczMWE5ZGNjOTE3OTUxZSIsImVtYWlsIjoiYWRtaW5AZW1haWwuY29tIiwiaXNBZG1pbiI6dHJ1ZSwiaWF0IjoxNjg2MjE0MjgzfQ.YjZXsTxN3LwBgbPFKMaSlp-6fpK5nGHyCSUyHL9mEac",
									"type": "string"
								}
							]
						},
						"method": "PUT",
						"header": [],
						"body": {
							"mode": "raw",
							"raw": "{\r\n    \"isActive\": true\r\n}",
							"options": {
								"raw": {
									"language": "json"
								}
							}
						},
						"url": {
							"raw": "https://capstone-2-escaros.onrender.com/products/activate/6481059cfa6d5a9962f8180f",
							"protocol": "https",
							"host": [
								"capstone-2-escaros",
								"onrender",
								"com"
							],
							"path": [
								"products",
								"activate",
								"6481059cfa6d5a9962f8180f"
							]
						}
					},
					"response": []
				},
				{
					"name": "Set User as Admin",
					"request": {
						"auth": {
							"type": "bearer",
							"bearer": [
								{
									"key": "token",
									"value": "eyJhbGciOiJIUzI1NiIsInR5cCI6IkpXVCJ9.eyJpZCI6IjY0ODEwNDgwZmE2ZDVhOTk2MmY4MTgwOSIsImVtYWlsIjoiZ2luQGV4YW1wbGUuY29tIiwiaXNBZG1pbiI6dHJ1ZSwiaWF0IjoxNjg2MjAwOTMzfQ.PZVRw7ggSZuadGdEpXzEAC5nh1k7Z2mdxiZEq7N1D1I",
									"type": "string"
								}
							]
						},
						"method": "PUT",
						"header": [],
						"url": {
							"raw": "https://capstone-2-escaros.onrender.com/users/admin/64814b9b9e6788afa9bfacc0",
							"protocol": "https",
							"host": [
								"capstone-2-escaros",
								"onrender",
								"com"
							],
							"path": [
								"users",
								"admin",
								"64814b9b9e6788afa9bfacc0"
							]
						}
					},
					"response": []
				}
			]
		}
	]
}